案例练习/Chisel/test_run_dir/buffer_should_pass/buffer.vcd
$date
2023-11-22T15:54+0000
$end
$version
0.2
$end
$comment

$end
$timescale 1ns  $end
$scope module buffer $end
 $var wire 8 ! io_out_data $end
 $var wire 8 " buffer_2 $end
 $var wire 8 # io_in_wdata $end
 $var wire 1 $ io_rst_n $end
 $var wire 1 ' io_in_wr $end
 $var wire 8 ( buffer_1 $end
 $var wire 1 * clock $end
 $var wire 8 + out_data $end
 $var wire 8 , buffer_0 $end
 $var wire 1 - io_out_full $end
 $var wire 2 . rdptr $end
 $var wire 1 / pdiff $end
 $var wire 8 0 buffer_3 $end
 $var wire 1 2 io_in_rd $end
 $var wire 2 3 wrptr $end
 $var wire 1 4 reset $end
 $var wire 1 5 resetCounter $end
 $var wire 1 6 out_full $end
  $scope module resetCounter $end
   $var wire 1 % clk $end
   $var wire 1 & reset $end
   $var wire 32 ) timeSinceReset $end
   $var wire 1 1 notChaos $end
  $upscope $end
$upscope $end
$enddefinitions $end
$dumpvars
0%
04
b00 .
b00000000 (
0&
05
0-
b00000000 !
0'
b00000000 0
b00000000 "
0/
b00000000 #
06
b00000000000000000000000000000000 )
b00000000 +
01
b00000000 ,
b00 3
0*
02
0$
$end
#0
14
1&
#1
1%
1*
#6
0%
04
0&
b00000001 #
0*
1'
#11
b01 3
1%
1*
b00000001 ,
#16
0%
b00000010 #
0*
#21
b10 3
1%
1*
b00000010 (
#26
0%
b00000011 #
0*
#31
b11 3
1%
b00000011 "
1*
1/
#36
0%
b00000100 #
12
0*
0'
#41
b00000001 !
1%
b01 .
1*
b00000001 +
0/
#46
0%
0*
#51
b00000010 !
1%
b10 .
1*
b00000010 +
#56
0%
0*
#61
b00000011 !
1%
b11 .
1*
b00000011 +
#66
0%
0*
#71
b00000000 !
1%
b00 .
1*
b00000000 +
1/
#76
0%
b00000000 #
02
0*
